%YAML 1.1
%TAG !u! tag:unity3d.com,2011:
--- !u!1045 &1
EditorBuildSettings:
  m_ObjectHideFlags: 0
  serializedVersion: 2
  m_Scenes:
  - enabled: 1
    path: Assets/GraphicTests/Scenes/1x_Materials/1101_Unlit.unity
    guid: 7fe3f9e94b4355641ba1534c54d5c356
  - enabled: 1
    path: Assets/GraphicTests/Scenes/1x_Materials/1101_Unlit_Smooth_Distortion.unity
    guid: 50b2c92f5c04d254aa8df03d007f00a9
  - enabled: 1
    path: Assets/GraphicTests/Scenes/1x_Materials/1102_Unlit_Distortion.unity
    guid: a6e4a81e1988f24459f57a881905a465
  - enabled: 1
    path: Assets/GraphicTests/Scenes/1x_Materials/1103_Unlit_Distortion_DepthTest.unity
    guid: 27d04b0368c7fef4eb423d76cc0e48dc
  - enabled: 1
    path: Assets/GraphicTests/Scenes/1x_Materials/1105_UnlitSG.unity
    guid: 3bab4531004af9d4783857842c774d26
  - enabled: 1
    path: Assets/GraphicTests/Scenes/1x_Materials/1201_Lit_Features.unity
    guid: 51392325eef9416439dc126a37256e6f
  - enabled: 1
    path: Assets/GraphicTests/Scenes/1x_Materials/1202_Lit_DoubleSideNormalMode.unity
    guid: 653861b0fa3627049a20abf379b1258f
  - enabled: 1
    path: Assets/GraphicTests/Scenes/1x_Materials/1203_Lit_Transparent.unity
    guid: e86a25d7e98b1c74199eaa8dbcc2cd01
  - enabled: 1
    path: Assets/GraphicTests/Scenes/1x_Materials/1204_Lit_Fog.unity
    guid: bc3f6030b835ecd4c800561f9ff1af15
  - enabled: 1
    path: Assets/GraphicTests/Scenes/1x_Materials/1205_Lit_Transparent_Refraction_a.unity
    guid: 530aef5d08a1569479cc65b219b8f9fb
  - enabled: 1
    path: Assets/GraphicTests/Scenes/1x_Materials/1205_Lit_Transparent_Refraction_b.unity
    guid: a554763837091f74d8372fb37cf885e9
  - enabled: 1
    path: Assets/GraphicTests/Scenes/1x_Materials/1205_Lit_Transparent_Refraction_c.unity
    guid: d050ee1eace81f14b90bc7b8fcd675e5
  - enabled: 1
    path: Assets/GraphicTests/Scenes/1x_Materials/1207_Lit_Displacement.unity
    guid: ac4701d765fa26b4f83d2fb9ed6b3c08
  - enabled: 1
    path: Assets/GraphicTests/Scenes/1x_Materials/1208_Lit_Displacement_POM.unity
    guid: 40bca98d8a50ec14182c423a91470550
  - enabled: 1
    path: Assets/GraphicTests/Scenes/1x_Materials/1209_Lit_Displacement_Vertex.unity
    guid: 54145926a6315654b9e70a75a4b050ef
  - enabled: 1
    path: Assets/GraphicTests/Scenes/1x_Materials/1210_Lit_BentNormal.unity
    guid: 5f5bca2466b2a1d48ae818180ef308fb
  - enabled: 1
    path: Assets/GraphicTests/Scenes/1x_Materials/1211_Lit_Details.unity
    guid: 722bdd4c5dac1f145acd795543fae598
  - enabled: 1
    path: Assets/GraphicTests/Scenes/1x_Materials/1212_Lit_Emission.unity
    guid: f465136a9ac4cb1429a4a1761d07c3c3
  - enabled: 1
    path: Assets/GraphicTests/Scenes/1x_Materials/1213_Lit_Anisotropy.unity
    guid: e0ebb398c814c2645af130d8b2e6b9aa
  - enabled: 1
    path: Assets/GraphicTests/Scenes/1x_Materials/1214_Lit_LowResTransparent.unity
    guid: 966a7c7799082494a9acead537653156
  - enabled: 1
    path: Assets/GraphicTests/Scenes/1x_Materials/1215_Lit_SubSurfaceScattering.unity
    guid: 201c29a239df4c74ea9e1ab47082abea
  - enabled: 1
    path: Assets/GraphicTests/Scenes/1x_Materials/1216_Lit_SSS_MaxRadius.unity
    guid: 0277520b19264c24eac3041bd22ae564
  - enabled: 1
    path: Assets/GraphicTests/Scenes/1x_Materials/1217_Lit_SSS_Pre-Post.unity
    guid: 6f2bc3028f3daba46ab0447a3e25ebc6
  - enabled: 1
    path: Assets/GraphicTests/Scenes/1x_Materials/1218_Lit_DiffusionProfiles.unity
    guid: d2d3cc41bae835b4baad808d950d67a9
  - enabled: 1
    path: Assets/GraphicTests/Scenes/1x_Materials/1219_Lit_Light_on_Tesselation.unity
    guid: 3f6529c22f7d2ca46814b2e7afd04ef9
  - enabled: 1
    path: Assets/GraphicTests/Scenes/1x_Materials/1220_Sorting.unity
    guid: 5c1bc003f0b8e6648a7860ad9ae82213
  - enabled: 1
    path: Assets/GraphicTests/Scenes/1x_Materials/1221_Lit_POM_Emission.unity
    guid: 6a401c36b9353ae43a8f0e8b8a98d6f4
  - enabled: 1
    path: Assets/GraphicTests/Scenes/1x_Materials/1222_Lit_Aniso_Textures.unity
    guid: f83ad7ecd25ef1f4780fc5f190023046
  - enabled: 1
    path: Assets/GraphicTests/Scenes/1x_Materials/1223_Lit_Iridescence.unity
    guid: b447fc323b2e7604e9404972d093fb77
  - enabled: 1
    path: Assets/GraphicTests/Scenes/1x_Materials/1224_Lit_Tesselation_Culling.unity
    guid: e6dbeb027fe017c41839dd2fcfc728f3
  - enabled: 1
    path: Assets/GraphicTests/Scenes/1x_Materials/1225_Lit_SpeedTree8SG.unity
    guid: 2ebfabb8ea7323c45aa68b437760fe3b
  - enabled: 1
    path: Assets/GraphicTests/Scenes/1x_Materials/1301_StackLitSG.unity
    guid: eefb6e7ceaa685442bbf61fd2b82f9ae
  - enabled: 1
    path: Assets/GraphicTests/Scenes/1x_Materials/1302_StackLitSG_PixarLM.unity
    guid: baf6b66103b82f74e95a5ce4e8051db7
  - enabled: 1
    path: Assets/GraphicTests/Scenes/1x_Materials/1303_StackLitSG_Testers_a.unity
    guid: a43874f539bb5494e86fdea5ac9df469
  - enabled: 1
    path: Assets/GraphicTests/Scenes/1x_Materials/1303_StackLitSG_Testers_b.unity
    guid: 23d1a6dbc0bbc7d4abf6ce5e9cd0e132
  - enabled: 1
    path: Assets/GraphicTests/Scenes/1x_Materials/1351_Fabric.unity
    guid: ce2b258da0df8d245b659390b6c2ac51
  - enabled: 1
    path: Assets/GraphicTests/Scenes/1x_Materials/1351_Fabric_Area_Light.unity
    guid: 671cc97b65e9fff439b889734383db04
  - enabled: 1
    path: Assets/GraphicTests/Scenes/1x_Materials/1352_Fabric_Env_Convolution.unity
    guid: 54443f41976c13246b6b67ce1dc2a06f
  - enabled: 1
    path: Assets/GraphicTests/Scenes/1x_Materials/1353_Fabric_Env_NoConvolution.unity
    guid: 57643150de083ba4488c5cb3b4854065
  - enabled: 1
    path: Assets/GraphicTests/Scenes/1x_Materials/1401_HairGraph.unity
    guid: 7c0b384fd32894841954edea3211d084
  - enabled: 1
    path: Assets/GraphicTests/Scenes/1x_Materials/1401_HairGraph_Area_Light.unity
    guid: 742fd14ea433315428d74ff668204092
  - enabled: 1
    path: Assets/GraphicTests/Scenes/1x_Materials/1451_AxF_SVBRDF.unity
    guid: 96afd39d83184974299cc32cded820c5
  - enabled: 1
    path: Assets/GraphicTests/Scenes/1x_Materials/1451_AxF_SVBRDF_AreaLights.unity
    guid: 58c04d8d44efb81418e09c89dbdde3d5
  - enabled: 1
    path: Assets/GraphicTests/Scenes/1x_Materials/1501_EyeTestSG.unity
    guid: f62791cf7ace7534680a0f9c461be164
  - enabled: 1
    path: Assets/GraphicTests/Scenes/1x_Materials/1550_3dsMax.unity
    guid: 35bf0206fff1a8442bd9cb215df7692d
  - enabled: 1
    path: Assets/GraphicTests/Scenes/1x_Materials/1601_TerrainLit.unity
    guid: d52dbea61cf2f884fadf33f8cc6afc0c
  - enabled: 1
    path: Assets/GraphicTests/Scenes/1x_Materials/1602_TerrainLit_Normal.unity
    guid: 493570d0c7a7cd0449d5ceb578701b5e
  - enabled: 1
    path: Assets/GraphicTests/Scenes/1x_Materials/1603_TerrainLit_BaseMap.unity
    guid: db02f2dc6427fce4b9372c28c86f0f73
  - enabled: 1
    path: Assets/GraphicTests/Scenes/1x_Materials/1604_Terrain_Holes.unity
    guid: c74289888608dce40a153ce7cebf20cf
  - enabled: 1
    path: Assets/GraphicTests/Scenes/1x_Materials/1701_Decals.unity
    guid: a27cb5a638892574f99eb333bb3c7722
  - enabled: 1
    path: Assets/GraphicTests/Scenes/1x_Materials/1702_MeshDecals.unity
    guid: d27cf5628eba05c479941957559088d1
  - enabled: 1
    path: Assets/GraphicTests/Scenes/1x_Materials/1703_Decals-ReorientedNormals.unity
    guid: accc96ed8662d3b4ebc3be051aada793
  - enabled: 1
    path: Assets/GraphicTests/Scenes/1x_Materials/1704_Decals-Settings.unity
    guid: ead63a11c9b9ca84a9419d8625393156
  - enabled: 1
    path: Assets/GraphicTests/Scenes/1x_Materials/1705_Decals-stress-test.unity
    guid: 0e963f94367e3fe4a8c36b77f2e12a8b
  - enabled: 1
    path: Assets/GraphicTests/Scenes/1x_Materials/1706_DecalsSG.unity
    guid: 4ead319809e7c8544ad909dcf8fa3c4c
  - enabled: 1
    path: Assets/GraphicTests/Scenes/1x_Materials/1707-Decals-FadeFactorAndDistance.unity
    guid: 0c8ccb28854bea64c99d7d677bd0638e
  - enabled: 1
    path: Assets/GraphicTests/Scenes/1x_Materials/1708_DecalsSG_on_SG.unity
    guid: 4462c9729d14bc14ebe49f7bc1069d4b
  - enabled: 1
    path: Assets/GraphicTests/Scenes/1x_Materials/1710_Decals_Normal_Patch.unity
    guid: 439ce9822b2644f4ea064429ed2c5955
  - enabled: 1
    path: Assets/GraphicTests/Scenes/1x_Materials/1709_DecalLayer_Forward.unity
    guid: fc98b50f488187f459732a09b7fc72ac
  - enabled: 1
    path: Assets/GraphicTests/Scenes/1x_Materials/1709_DecalLayer_ForwardMSAA.unity
    guid: a79c122fed0bac741bd804ab2c433660
  - enabled: 1
    path: Assets/GraphicTests/Scenes/1x_Materials/1709_DecalLayer_Deferred.unity
    guid: 4aef154006852e04da889d8191349fd4
  - enabled: 1
    path: Assets/GraphicTests/Scenes/1x_Materials/1711_DecalMasks_4RT.unity
    guid: a537e2b011b7b4c07af19c8ad6b26cec
  - enabled: 1
    path: Assets/GraphicTests/Scenes/1x_Materials/1711_DecalMasks_3RT.unity
    guid: edea5f204710d6f428c50856ebb8ff44
  - enabled: 1
    path: Assets/GraphicTests/Scenes/1x_Materials/1712_DecalAngleFading.unity
    guid: 4b93985ba01d5aa49a5f0cdd342faa27
  - enabled: 1
    path: Assets/GraphicTests/Scenes/1x_Materials/1713_MeshDecalViewBias.unity
    guid: 0adc2fcc221085f45ba4dce7e4afae0d
  - enabled: 1
    path: Assets/GraphicTests/Scenes/1x_Materials/1800_Classification.unity
    guid: 5043daebf48d1b740bb244b9a55508ef
  - enabled: 1
    path: Assets/GraphicTests/Scenes/1x_Materials/1801_MaterialQuality.unity
    guid: 57b95311ba922d74c9d1c5168e7ade4d
  - enabled: 1
    path: Assets/GraphicTests/Scenes/1x_Materials/1802_Depth_Pre_Post_Lit.unity
    guid: 02013ee53ba4f3040aa4e23a5466458e
  - enabled: 1
    path: Assets/GraphicTests/Scenes/1x_Materials/1803_Depth_Pre_Post_LitTess.unity
    guid: 7f12ade1d807738439e8d82f0a0fee0e
  - enabled: 1
    path: Assets/GraphicTests/Scenes/1x_Materials/1804_Depth_Pre_Post_SG.unity
    guid: c06476e87db333449ace0bd8c088c530
  - enabled: 1
    path: Assets/GraphicTests/Scenes/1x_Materials/1900_AlphaTest_SG_a.unity
    guid: c566b460a3674184da6c102196a1a888
  - enabled: 1
    path: Assets/GraphicTests/Scenes/1x_Materials/1900_AlphaTest_SG_b.unity
    guid: 2486b40270d6e524d8762a9d2a0c1e78
  - enabled: 1
    path: Assets/GraphicTests/Scenes/1x_Materials/1910_DepthOffset.unity
    guid: 8c039225354f2b24390b4c8c735ab141
  - enabled: 1
    path: Assets/GraphicTests/Scenes/2x_Lighting/2001_Light_DynamicDirectional.unity
    guid: 09baf18a7e1f6584f86675e6a2141c66
  - enabled: 1
    path: Assets/GraphicTests/Scenes/2x_Lighting/2002_Light_DynamicMix.unity
    guid: bcbb964f739039045b7958a9b1489657
  - enabled: 1
    path: Assets/GraphicTests/Scenes/2x_Lighting/2003_Light_Parameters.unity
    guid: ac9787fadf0b4ed4391bee6ba1d8e213
  - enabled: 1
    path: Assets/GraphicTests/Scenes/2x_Lighting/2004_Light_AnimatedCookie.unity
    guid: 9f03abfd8e9cc614c89458cbdb208e7c
  - enabled: 1
    path: Assets/GraphicTests/Scenes/2x_Lighting/2005_Light_ColorTemp.unity
    guid: 34a3a4a7a56d3014dad3114e6b523742
  - enabled: 1
    path: Assets/GraphicTests/Scenes/2x_Lighting/2006_Light_SpotAngleDistance.unity
    guid: c39638d0d6bfcf644b4b6966af6fc876
  - enabled: 1
    path: Assets/GraphicTests/Scenes/2x_Lighting/2007_Physical_light_units.unity
    guid: 12c6c0ebef029dc4881483b06cbf3e8e
  - enabled: 1
    path: Assets/GraphicTests/Scenes/2x_Lighting/2008_Light_Volumetrics.unity
    guid: 292a7700209ba7c49ab0bcef8b7c8940
  - enabled: 1
    path: Assets/GraphicTests/Scenes/2x_Lighting/2009_MultipleSkies.unity
    guid: bdc9e712cf2e77a49a64859ccb7ba8d7
  - enabled: 1
    path: Assets/GraphicTests/Scenes/2x_Lighting/2010_IES_Cookies.unity
    guid: ad7e365098dfb004aba8f7e35924b5ce
  - enabled: 1
    path: Assets/GraphicTests/Scenes/2x_Lighting/2011_ForwardEmissiveForDeferred.unity
    guid: 94ff79e05bdbc3f47897538b381d1a2e
  - enabled: 1
    path: Assets/GraphicTests/Scenes/2x_Lighting/2101_GI_Metapass.unity
    guid: 8747b43f8bcf2b44cbc3ece373da65a9
  - enabled: 1
    path: Assets/GraphicTests/Scenes/2x_Lighting/2102_GI_Emission.unity
    guid: b8f49ca9a12abb4468116e9422139e63
  - enabled: 1
    path: Assets/GraphicTests/Scenes/2x_Lighting/2103_GI_BakeMixed.unity
    guid: d8cfa4fd9319d2444b3bf6dd836ffe31
  - enabled: 1
    path: Assets/GraphicTests/Scenes/2x_Lighting/2104_GI_Instancing.unity
    guid: 9fdfbe7bced924d4791cf6fa031218d2
  - enabled: 1
    path: Assets/GraphicTests/Scenes/2x_Lighting/2105_GI_BakedLightShape.unity
    guid: c034386e3fb58f44783743edf9b0f4a4
  - enabled: 1
    path: Assets/GraphicTests/Scenes/2x_Lighting/2106_GI_EmissionSG.unity
    guid: bf5546a039f560c45a12651846981034
  - enabled: 1
    path: Assets/GraphicTests/Scenes/2x_Lighting/2107_GI_IESCookie_A.unity
    guid: 8364dfd053eae8648ac8a8c149cbd091
  - enabled: 1
    path: Assets/GraphicTests/Scenes/2x_Lighting/2108_GI_IESCookie_B.unity
    guid: 029a23150c357e745b0a9f972f07049c
  - enabled: 1
    path: Assets/GraphicTests/Scenes/2x_Lighting/2109_GI_DoubleSided.unity
    guid: 901190cb7cb9686409afb4b714125e54
  - enabled: 1
    path: Assets/GraphicTests/Scenes/2x_Lighting/2201_ReflectionProbes_Priority.unity
    guid: d485acf0535eb4b42a9a3847f4a8274a
  - enabled: 1
    path: Assets/GraphicTests/Scenes/2x_Lighting/2202_ReflectionProbes_Volume.unity
    guid: 9b3132db666b3ae48aa17349ab100118
  - enabled: 1
    path: Assets/GraphicTests/Scenes/2x_Lighting/2203_PlanarProbes.unity
    guid: b8fa5b1235e91884799163adaf34e5d6
  - enabled: 1
    path: Assets/GraphicTests/Scenes/2x_Lighting/2204_ReflectionProbes_Lights.unity
    guid: 21d198bbbf9143d40b227ad2fe71706f
  - enabled: 1
    path: Assets/GraphicTests/Scenes/2x_Lighting/2205_LightLoopCullWOblique.unity
    guid: 2fb467d07511ad0498c47a86eb170d71
  - enabled: 1
    path: Assets/GraphicTests/Scenes/2x_Lighting/2206_PlanarReflectionVFace.unity
    guid: d4d352e2cbfbfac4686e77b69fe84ec0
  - enabled: 1
    path: Assets/GraphicTests/Scenes/2x_Lighting/2207_ReflectionProbeVFace.unity
    guid: 4814073d6e6ec404bba1f26bec73307a
  - enabled: 1
    path: Assets/GraphicTests/Scenes/2x_Lighting/2208_PlanarReflectionCullingStencil.unity
    guid: a550f264fed1623459f813b5001bea48
  - enabled: 1
    path: Assets/GraphicTests/Scenes/2x_Lighting/2209_ReflectionProbeCullingStencil.unity
    guid: b8090c44833d0a842bcd90e27dc43b6b
  - enabled: 1
    path: Assets/GraphicTests/Scenes/2x_Lighting/2210_ReflectionProbes_CaptureAtVolumeAnchor.unity
    guid: 6abac8c2689f0ed48b18d05bc496d5c4
  - enabled: 1
    path: Assets/GraphicTests/Scenes/2x_Lighting/2211_Probes_Specular.unity
    guid: e67192984ee3d6b44a17da02cda1f17a
  - enabled: 1
    path: Assets/GraphicTests/Scenes/2x_Lighting/2212_ReflectionProbes_Skies.unity
    guid: c193bc6b9e5a3764a92da565cdf8d74d
  - enabled: 1
    path: Assets/GraphicTests/Scenes/2x_Lighting/2222_ReflectionProbeDistanceBased.unity
    guid: edecbcde87e543140b1f4e2ffe510a3c
  - enabled: 1
    path: Assets/GraphicTests/Scenes/2x_Lighting/2220_SmoothPlanarReflection.unity
    guid: d4a7e5df537f6b0468c09ce661d8791d
  - enabled: 1
    path: Assets/GraphicTests/Scenes/2x_Lighting/2220_PlanarProbeExposure.unity
    guid: 52c8aecb09fafca439f894462d558a70
  - enabled: 1
    path: Assets/GraphicTests/Scenes/2x_Lighting/2301_Shadow_Mask.unity
    guid: 1029947770f955b4290bbdd8b641f7f1
  - enabled: 1
    path: Assets/GraphicTests/Scenes/2x_Lighting/2302_Shadow_Mask_Distance_Mode.unity
    guid: e52f701bbdb7827468e3548d1fd05590
  - enabled: 1
    path: Assets/GraphicTests/Scenes/2x_Lighting/2303_Shadow_Mask_Directional_OcclusionProbes.unity
    guid: 72c3210b185a33041ba0b13a57b1a3ea
  - enabled: 1
    path: Assets/GraphicTests/Scenes/2x_Lighting/2304_Contact_Shadow_DirectionalLight.unity
    guid: 0bd95465e38213946bb84218fa502976
  - enabled: 1
    path: Assets/GraphicTests/Scenes/2x_Lighting/2305_Contact_Shadow_PointLight.unity
    guid: 3bde89488846b9b43948e14b9d0ac936
  - enabled: 1
    path: Assets/GraphicTests/Scenes/2x_Lighting/2306_Contact_Shadow_SpotLight.unity
    guid: a8ecf1e3cee864a48bd6bca2c797fdb3
  - enabled: 1
    path: Assets/GraphicTests/Scenes/2x_Lighting/2307_Shadow_VeryHigh.unity
    guid: c110cc3f909bb664b82eb554f0494597
  - enabled: 1
    path: Assets/GraphicTests/Scenes/2x_Lighting/2308_Microshadows.unity
    guid: 6250123484c56d544a5c1cbd20fd6bb2
  - enabled: 1
    path: Assets/GraphicTests/Scenes/2x_Lighting/2311_ShadowMaps.unity
    guid: 5dfc947af7e868c47a4656d29eb8653e
  - enabled: 1
    path: Assets/GraphicTests/Scenes/2x_Lighting/2312_Shadow_Mask_Spotlight_InnerAngle.unity
    guid: 653e9f0dc8540cd4286847b9791d92d6
  - enabled: 1
    path: Assets/GraphicTests/Scenes/2x_Lighting/2313_Shadow_Mask_Spotlight_Shapes.unity
    guid: 1aa0378ee07d97c41a3b309d969ab7d0
  - enabled: 1
    path: Assets/GraphicTests/Scenes/2x_Lighting/2314_Shadow_CustonAngle.unity
    guid: ae006c49aeea80940bd9fc1a623060aa
  - enabled: 1
    path: Assets/GraphicTests/Scenes/2x_Lighting/2315_Shadow_Cascades.unity
    guid: 5246b0356ec7dbf4aa0a3afc6b27b122
  - enabled: 1
    path: Assets/GraphicTests/Scenes/2x_Lighting/2316_ShadowTint.unity
    guid: c59b82120d32fbf4d96793fb7e0ec339
  - enabled: 1
    path: Assets/GraphicTests/Scenes/2x_Lighting/2317_Mixed_Cached_ShadowMap_Point.unity
    guid: f0256a9b31ae76e45bb04cfbbd6799ec
  - enabled: 1
    path: Assets/GraphicTests/Scenes/2x_Lighting/2318_Mixed_Cached_ShadowMap_Spot.unity
    guid: d4a5828c5a9a32444b15a298a759ff53
  - enabled: 1
    path: Assets/GraphicTests/Scenes/2x_Lighting/2401_Area_Light_Meshes.unity
    guid: 359ded33a047fd540b5e19a98547f5e2
  - enabled: 1
    path: Assets/GraphicTests/Scenes/2x_Lighting/2402_Area_Rect_Shadow.unity
    guid: b03383077f153b7439af7708ebe1155a
  - enabled: 1
    path: Assets/GraphicTests/Scenes/2x_Lighting/2403_Area_TexturedRectLights.unity
    guid: 3b6ce72f472558240a2a8d61a932c6d0
  - enabled: 1
    path: Assets/GraphicTests/Scenes/2x_Lighting/2404_Area_LightOrientation.unity
    guid: e64d4cbd26924f44cb8ecf945d8f899a
  - enabled: 1
    path: Assets/GraphicTests/Scenes/2x_Lighting/2405_EnlightenDynamicAreaLights.unity
    guid: 5fe2db8e1b1f1b3448bdcc75bea0e2b8
  - enabled: 1
    path: Assets/GraphicTests/Scenes/2x_Lighting/2501_LightLayers.unity
    guid: 100c0e304d8aba84186dcd9bf48e5b85
  - enabled: 1
    path: Assets/GraphicTests/Scenes/2x_Lighting/2502_LightLayers Bitmask.unity
    guid: 6340c2e39ade6af419c41e6f7dce54c5
  - enabled: 1
    path: Assets/GraphicTests/Scenes/2x_Lighting/2503_LightLayer_DisableShadow.unity
    guid: a8cbd2435b2e88e4b8f3060f575e7af5
  - enabled: 1
    path: Assets/GraphicTests/Scenes/2x_Lighting/2505_Area_Light_ShadowMask_Baking.unity
    guid: 091dc511a7c5d714cba984414c7b7ecf
  - enabled: 1
    path: Assets/GraphicTests/Scenes/2x_Lighting/2551_SSR.unity
    guid: 62f2b88cccb280246a9211bbcf0c8245
  - enabled: 1
    path: Assets/GraphicTests/Scenes/2x_Lighting/2601_SSAO_HalfRes.unity
    guid: 7ac54351dc30c31478c8971edef2c924
  - enabled: 1
    path: Assets/GraphicTests/Scenes/2x_Lighting/2602_SSAO_FullRes.unity
    guid: afb9d0b09509f784293f3fa6a218103e
  - enabled: 1
    path: Assets/GraphicTests/Scenes/2x_Lighting/2701_TransparentSSR.unity
    guid: c9a611601b514da47a39335dc899c5f3
  - enabled: 1
    path: Assets/GraphicTests/Scenes/3x_DebugView/3001_DebugView.unity
    guid: 21522d96110c8dd41ab353d89fd740c3
  - enabled: 1
    path: Assets/GraphicTests/Scenes/3x_DebugView/3002_DebugLightLayers.unity
    guid: 95280217564a80c45916bbb33c3159fb
  - enabled: 1
    path: Assets/GraphicTests/Scenes/3x_DebugView/3003_LightingMode.unity
    guid: efd4cc3ba99a3ab4bbce52727bc5a7ec
  - enabled: 1
    path: Assets/GraphicTests/Scenes/3x_DebugView/3004_QuadOverdraw.unity
    guid: 5192812f0357dd846859eebd40994bb4
  - enabled: 1
    path: Assets/GraphicTests/Scenes/3x_DebugView/3005_VertexDensity.unity
    guid: cec032192a9db8541b2c7d395ba6fd9f
  - enabled: 1
    path: Assets/GraphicTests/Scenes/4x_PostProcessing/4001_Exposure.unity
    guid: f32cdac65dd17f847b4cdaaa85bb990a
  - enabled: 1
    path: Assets/GraphicTests/Scenes/4x_PostProcessing/4011_MotionBlur_PerObject.unity
    guid: bfedb7e76d6153a4896b9d61a8d826af
  - enabled: 1
    path: Assets/GraphicTests/Scenes/4x_PostProcessing/4013_TransparentMotionVector.unity
    guid: ed84243e5c418844f87509bf80fdd919
  - enabled: 1
    path: Assets/GraphicTests/Scenes/4x_PostProcessing/4014_PrecomputedVelocityAlembic.unity
    guid: 908719946298a0c4cb31ea9576b14b3c
  - enabled: 1
    path: Assets/GraphicTests/Scenes/4x_PostProcessing/4020_ChromaticAberration.unity
    guid: 50a8dc518aa0c5e4fa5ae2ab2052bef4
  - enabled: 1
    path: Assets/GraphicTests/Scenes/4x_PostProcessing/4021_LensDistortion.unity
    guid: 4484570f2b253984b89233ac50505811
  - enabled: 1
    path: Assets/GraphicTests/Scenes/4x_PostProcessing/4022_PaniniProjection.unity
    guid: 3f7fbddefe91fe44ba7e0c199894d7d5
  - enabled: 1
    path: Assets/GraphicTests/Scenes/4x_PostProcessing/4023_VignetteClassic.unity
    guid: 27e9bb11ee6914e44bf36ad688926b50
  - enabled: 1
    path: Assets/GraphicTests/Scenes/4x_PostProcessing/4024_VignetteMasked.unity
    guid: 8489469fb12327945a9b847b88f77d9a
  - enabled: 1
    path: Assets/GraphicTests/Scenes/4x_PostProcessing/4025_FilmGrain.unity
    guid: eac2e34f4627d8846a2df518b0e1cb9e
  - enabled: 1
    path: Assets/GraphicTests/Scenes/4x_PostProcessing/4026_Dithering.unity
    guid: 49c136c02b1ebe640834a557f6baeef3
  - enabled: 1
    path: Assets/GraphicTests/Scenes/4x_PostProcessing/4027_GradingChannelMixer.unity
    guid: e4d45947c95a67a41b393c5fe823891b
  - enabled: 1
    path: Assets/GraphicTests/Scenes/4x_PostProcessing/4028_GradingColorAdjustments.unity
    guid: d37e4ef718eada94db246dbd8ef33205
  - enabled: 1
    path: Assets/GraphicTests/Scenes/4x_PostProcessing/4029_GradingColorCurves.unity
    guid: c4dab86134e72034aac45c19df32ceb7
  - enabled: 1
    path: Assets/GraphicTests/Scenes/4x_PostProcessing/4030_GradingLiftGammaGain.unity
    guid: 61718ed79ced0044fbfabd6ef7861a15
  - enabled: 1
    path: Assets/GraphicTests/Scenes/4x_PostProcessing/4031_GradingShadowsMidtonesHighlights.unity
    guid: b8fbc679adfaed54ea1d4121a8564c81
  - enabled: 1
    path: Assets/GraphicTests/Scenes/4x_PostProcessing/4032_GradingSplitToning.unity
    guid: 9e7523551cb924341a7dd2c98d773076
  - enabled: 1
    path: Assets/GraphicTests/Scenes/4x_PostProcessing/4033_GradingWhiteBalance.unity
    guid: 507fe0226a0388c4898d134f829a4b28
  - enabled: 1
    path: Assets/GraphicTests/Scenes/4x_PostProcessing/4034_TonemappingNeutral.unity
    guid: 6808e46b8d5946d478e963bd62642023
  - enabled: 1
    path: Assets/GraphicTests/Scenes/4x_PostProcessing/4035_TonemappingACES.unity
    guid: e2f8343586d0e6a46b9c20d3f682de21
  - enabled: 1
    path: Assets/GraphicTests/Scenes/4x_PostProcessing/4036_TonemappingCustom.unity
    guid: 2ffd6ed326c538247bdc54ab68fed4e2
  - enabled: 1
    path: Assets/GraphicTests/Scenes/4x_PostProcessing/4037_TonemappingExternal.unity
    guid: a29cfd59900da92428e1dc1fa215b260
  - enabled: 1
    path: Assets/GraphicTests/Scenes/4x_PostProcessing/4050_FXAA.unity
    guid: 736a5167224854841be61166040606c6
  - enabled: 1
    path: Assets/GraphicTests/Scenes/4x_PostProcessing/4051_SMAA.unity
    guid: d504aeb351e677b458d6c8980f63702b
  - enabled: 1
    path: Assets/GraphicTests/Scenes/4x_PostProcessing/4052_TAA.unity
    guid: 3f337bf06aa4e694c9ef5f6dc0eab02e
  - enabled: 1
    path: Assets/GraphicTests/Scenes/4x_PostProcessing/4060_CustomPostProcess.unity
    guid: cf78ea2211e5e6c45b8a85261bb291dd
  - enabled: 1
    path: Assets/GraphicTests/Scenes/4x_PostProcessing/4070_PhysicalCamera-iso-aperture-shutter.unity
    guid: cc0be4a72d37601449a16c2d168ac449
  - enabled: 1
    path: Assets/GraphicTests/Scenes/4x_PostProcessing/4071_PhysicalCamera-Aperture-bladeCount.unity
    guid: 842b41a0b734f7744870a951a35f6d9e
  - enabled: 1
    path: Assets/GraphicTests/Scenes/4x_PostProcessing/4072_PhysicalCamera-Aperture-curvature.unity
    guid: a7cd68611a456484baf555290cba8d67
  - enabled: 1
    path: Assets/GraphicTests/Scenes/4x_PostProcessing/4073_PhysicalCamera-Aperture-barrelClipping.unity
    guid: eb4329adb36623e4a8aa4f0a72b36203
  - enabled: 1
    path: Assets/GraphicTests/Scenes/4x_PostProcessing/4074_PhysicalCamera-Aperture-anamorphism.unity
    guid: 9a927a8eae77a07438f6e55cb7c03820
  - enabled: 1
    path: Assets/GraphicTests/Scenes/4x_PostProcessing/4075_PhysicalCamera-gateFit.unity
    guid: c117ad53f0d031344b1a2e850c7e5eac
  - enabled: 1
    path: Assets/GraphicTests/Scenes/4x_PostProcessing/4076_PhysicalCamera-lensShift.unity
    guid: fc67c672737bf414d89053dc0d980bff
  - enabled: 1
    path: Assets/GraphicTests/Scenes/4x_PostProcessing/4080_DepthOfField.unity
    guid: d3375e5f6f853104cab3917c2424cca2
  - enabled: 1
    path: Assets/GraphicTests/Scenes/4x_PostProcessing/4082_DepthOfField-PB.unity
    guid: d31e5e20c0b5d8b42af93fda0f5f77a5
  - enabled: 1
    path: Assets/GraphicTests/Scenes/4x_PostProcessing/4083_DepthOfField-FP16AlphaPB.unity
    guid: a0fe0a96435b36649a501656437bfdeb
  - enabled: 1
    path: Assets/GraphicTests/Scenes/4x_PostProcessing/4090_DRS-Hardware.unity
    guid: 813bead26cd69ed4c9e9726f6670da5f
  - enabled: 1
    path: Assets/GraphicTests/Scenes/4x_PostProcessing/4091_DRS-Software.unity
    guid: 6293ce393e2851d4e9827ff3dadd2673
  - enabled: 1
    path: Assets/GraphicTests/Scenes/4x_PostProcessing/4101_FP16Alpha.unity
    guid: 5f05ae64777a2d9458961c7ac5f1977f
  - enabled: 1
    path: Assets/GraphicTests/Scenes/5x_SkyAndFog/5001_Fog_FogFallback.unity
    guid: d04c39af67e5e18449a44f6a7778862f
  - enabled: 1
    path: Assets/GraphicTests/Scenes/5x_SkyAndFog/5002_Fog_DensityVolumes.unity
    guid: 340fc0a32de5178478b13cfa2dd928f6
  - enabled: 1
    path: Assets/GraphicTests/Scenes/5x_SkyAndFog/5003_Fog_DensityVolumesShadows.unity
    guid: abfc0c0cd1816114e9696849bc9e6406
  - enabled: 1
    path: Assets/GraphicTests/Scenes/5x_SkyAndFog/5004_Pbr_Sky_High_Altitude.unity
    guid: 3ac6122326e687b439415cfacaf7d48e
  - enabled: 1
    path: Assets/GraphicTests/Scenes/5x_SkyAndFog/5005_Pbr_Sky_Med_Altitude.unity
    guid: da48472b200e13f438a16366737c777c
  - enabled: 1
    path: Assets/GraphicTests/Scenes/5x_SkyAndFog/5006_Pbr_Sky_Low_Altitude.unity
    guid: 064c94d540e5d9248a6c4d43a6d1f1e8
  - enabled: 1
    path: Assets/GraphicTests/Scenes/5x_SkyAndFog/5007_Exponential_Fog.unity
    guid: d41e3091708565747bbadd792e5dd01b
  - enabled: 1
    path: Assets/GraphicTests/Scenes/5x_SkyAndFog/5008_FogFiltering.unity
    guid: f5cb4917223ead34abb31c1dc1013fb2
  - enabled: 1
    path: Assets/GraphicTests/Scenes/5x_SkyAndFog/5009_HDRI_Sky_Flow.unity
    guid: f2fd7a28087b7634e94c49cb78704e74
  - enabled: 1
    path: Assets/GraphicTests/Scenes/5x_SkyAndFog/5010_CloudLayer.unity
    guid: 602816355ed2fb94383bb6396823e77e
  - enabled: 1
    path: Assets/GraphicTests/Scenes/5x_SkyAndFog/5011_VolumetricCloudsShadows.unity
    guid: 2d74a7c25635150458c8929bffe51aa3
  - enabled: 1
    path: Assets/GraphicTests/Scenes/5x_SkyAndFog/5011_VolumetricClouds.unity
    guid: 2c45a175605910b429f6a1568c825d52
  - enabled: 1
    path: Assets/GraphicTests/Scenes/8x_ShaderGraph/8101_Opaque.unity
    guid: 3f9e911b4dbc9464e85add595c37cb89
  - enabled: 1
    path: Assets/GraphicTests/Scenes/8x_ShaderGraph/8102_Transparent.unity
    guid: c2f6e1c5441279d42b05dbe99212bf2d
  - enabled: 1
    path: Assets/GraphicTests/Scenes/8x_ShaderGraph/8103_PrePostPass.unity
    guid: 92280049d357c564b9a9297b39e02a92
  - enabled: 1
    path: Assets/GraphicTests/Scenes/8x_ShaderGraph/8104_Unlit.unity
    guid: 7529f10e11b78924b9c1ee1727b1405f
  - enabled: 1
    path: Assets/GraphicTests/Scenes/8x_ShaderGraph/8105_BlendStates_a.unity
    guid: f4c1349c4fb80fc42a6633e112d14557
  - enabled: 1
    path: Assets/GraphicTests/Scenes/8x_ShaderGraph/8105_BlendStates_b.unity
    guid: e75b9916869e2384b8e53bc6bffb1314
  - enabled: 1
    path: Assets/GraphicTests/Scenes/8x_ShaderGraph/8105_BlendStates_c_lit-unlit.unity
    guid: 277b6e81295b84afaa297d0889efb8a1
  - enabled: 1
    path: Assets/GraphicTests/Scenes/8x_ShaderGraph/8106_UnlitShadowMatte.unity
    guid: 446a8abf33eabaa4eb3228747da30066
  - enabled: 1
    path: Assets/GraphicTests/Scenes/8x_ShaderGraph/8107_UnlitShadowMatteAmbientOcclusion.unity
    guid: 3258eb67f3c2f974bb87d063ef60ccb5
  - enabled: 1
    path: Assets/GraphicTests/Scenes/8x_ShaderGraph/8108_UnlitShadowMatteAmbientOcclusionMSAA.unity
    guid: c2efdf3fe2a75b54588a53fc3be2bd17
  - enabled: 1
    path: Assets/GraphicTests/Scenes/8x_ShaderGraph/8109_IsFrontFace.unity
    guid: efcb56a48bd79f6478c01c072f236149
  - enabled: 1
    path: Assets/GraphicTests/Scenes/8x_ShaderGraph/8201_VertexAnimation.unity
    guid: 328570ab5ddac484bbf26d8504f7f417
  - enabled: 1
    path: Assets/GraphicTests/Scenes/8x_ShaderGraph/8202_BentNormals.unity
    guid: 73c76f42fb2f8e94a81002777d6b2ae4
  - enabled: 1
    path: Assets/GraphicTests/Scenes/8x_ShaderGraph/8203_Emission.unity
    guid: c9562f484d1b1ad4498a5cb660648dcb
  - enabled: 1
    path: Assets/GraphicTests/Scenes/8x_ShaderGraph/8204_CustomSpecOcclusion.unity
    guid: ea4b63b16805d5d40a81ed8842d96847
  - enabled: 1
    path: Assets/GraphicTests/Scenes/8x_ShaderGraph/8205_SceneDepthColorNodes.unity
    guid: 17a399a27d6d4504cb53093dcadfe715
  - enabled: 1
    path: Assets/GraphicTests/Scenes/8x_ShaderGraph/8206_VertexNormalTangent.unity
    guid: 2ece39f1bf8803a4192cbf5c032b5b7d
  - enabled: 1
    path: Assets/GraphicTests/Scenes/8x_ShaderGraph/8207_CustomInterpolators.unity
    guid: 52d6e6ba6f864c24f9ca8db904b542b0
  - enabled: 1
    path: Assets/GraphicTests/Scenes/9x_Other/9001_LODTransition.unity
    guid: b15315a1f9287fa4dac965a039b3b778
  - enabled: 1
    path: Assets/GraphicTests/Scenes/9x_Other/9002_FrameSettings_LOD.unity
    guid: b4995887c0a7322428c31a1e7778754b
  - enabled: 1
    path: Assets/GraphicTests/Scenes/9x_Other/9003_CameraRelativeRendering.unity
    guid: b15afca992049604dbb5071c393dd355
  - enabled: 1
    path: Assets/GraphicTests/Scenes/9x_Other/9004_MultiViewport.unity
    guid: ee1bdf0fe4a145549a0172f292129c20
  - enabled: 1
    path: Assets/GraphicTests/Scenes/9x_Other/9005_AfterPostProcess.unity
    guid: 2bb5d28daf3968e40aad1ae3211c2e9d
  - enabled: 1
    path: Assets/GraphicTests/Scenes/9x_Other/9007_CameraAlphaComposition.unity
    guid: 9bdb6076c41f9d64099cfd338b8f4c8b
  - enabled: 1
    path: Assets/GraphicTests/Scenes/9x_Other/9301_MotionVectorsOff-Forward-Dynamic.unity
    guid: 322dc5ea5f705a245acc44fd467164ef
  - enabled: 1
    path: Assets/GraphicTests/Scenes/9x_Other/9301_MotionVectorsOff-Forward-Static.unity
    guid: e77695acbf97db642bde151c9cb2e6dd
  - enabled: 1
    path: Assets/GraphicTests/Scenes/9x_Other/9301_MotionVectorsOn-Forward-Dynamic.unity
    guid: 4a647d8a90f260a498beeeab999a7a94
  - enabled: 1
    path: Assets/GraphicTests/Scenes/9x_Other/9301_MotionVectorsOn-Forward-Static.unity
    guid: da4626baae9ab224396d5b4ea4d65ade
  - enabled: 1
    path: Assets/GraphicTests/Scenes/9x_Other/9302_MotionVectorsOff-Deffered-Dynamic.unity
    guid: c94380e34bef7d24c9d95f520ee006b1
  - enabled: 1
    path: Assets/GraphicTests/Scenes/9x_Other/9302_MotionVectorsOff-Deffered-Static.unity
    guid: 4f2cb986918804f4aad481246d4b54ba
  - enabled: 1
    path: Assets/GraphicTests/Scenes/9x_Other/9302_MotionVectorsOff-DefferedDecal-Dynamic.unity
    guid: d9fa5d46dfe9c904094d3307d82467ba
  - enabled: 1
    path: Assets/GraphicTests/Scenes/9x_Other/9302_MotionVectorsOff-DefferedDecal-Static.unity
    guid: d00305c429b50834eb16887388118552
  - enabled: 1
    path: Assets/GraphicTests/Scenes/9x_Other/9302_MotionVectorsOn-Deffered-Dynamic.unity
    guid: dbac54cd53110e949bff19f8be4e39bf
  - enabled: 1
    path: Assets/GraphicTests/Scenes/9x_Other/9302_MotionVectorsOn-Deffered-Static.unity
    guid: 356a32d71c5170b4ea18c8b7a80b0f47
  - enabled: 1
    path: Assets/GraphicTests/Scenes/9x_Other/9302_MotionVectorsOn-DefferedDecal-Dynamic.unity
    guid: 6cfc34a76b5a8334b850c3129d9069c7
  - enabled: 1
    path: Assets/GraphicTests/Scenes/9x_Other/9302_MotionVectorsOn-DefferedDecal-Static.unity
    guid: aa2b8ed7d0d276340b794c91ebc7cdce
  - enabled: 1
    path: Assets/GraphicTests/Scenes/9x_Other/9303_MotionVectorsDisabled.unity
    guid: 82d327d1c3dbce748884df6b53e153fd
  - enabled: 1
    path: Assets/GraphicTests/Scenes/9x_Other/9401_MSAAForwardOnly.unity
    guid: b8bed8c61a04a644f87582e26e3596f2
  - enabled: 1
    path: Assets/GraphicTests/Scenes/9x_Other/9401_MSAAForwardBoth.unity
    guid: 3355ad2efd7c699418d5a0db666d2d01
  - enabled: 1
    path: Assets/GraphicTests/Scenes/9x_Other/9402_AlphaToMask-Graph.unity
    guid: 4fb94469014a7ce468a32889d270785d
  - enabled: 1
    path: Assets/GraphicTests/Scenes/9x_Other/9402_AlphaToMask-HDRP.unity
    guid: 520aec2f141eeaf4daceb4e016157b78
  - enabled: 1
    path: Assets/GraphicTests/Scenes/9x_Other/9500_LightScripting.unity
    guid: 134ab13db8156a14891996196de4cf63
  - enabled: 1
    path: Assets/GraphicTests/Scenes/9x_Other/9601_SkinnedMeshBatching-Off.unity
    guid: d0d3270af482d2349baf7fc2a1dc7d4f
  - enabled: 1
    path: Assets/GraphicTests/Scenes/9x_Other/9602_SkinnedMeshBatching-On.unity
    guid: 78446c36daacd444c8a07b5671274a51
  - enabled: 1
    path: Assets/GraphicTests/Scenes/9x_Other/9603_MeshRendererBatching-Off.unity
    guid: 7edc6301457ff2c41a22f11ed10a9aee
  - enabled: 1
    path: Assets/GraphicTests/Scenes/9x_Other/9604_MeshRendererBatching-On.unity
    guid: 0dcef9d74b6e30247bf7390c1da4abe5
  - enabled: 1
    path: Assets/GraphicTests/Scenes/9x_Other/9700_CustomPass_FullScreen.unity
    guid: 86f8f2a99d6720b48abc19c684103d74
  - enabled: 1
    path: Assets/GraphicTests/Scenes/9x_Other/9701_CustomPass_DrawRenderers.unity
    guid: c64196eb7ce78e84bb835b2ea858ee19
  - enabled: 1
    path: Assets/GraphicTests/Scenes/9x_Other/9702_CustomPass_API.unity
    guid: 3d584f34970fc5c44871961e3178f4ce
  - enabled: 1
    path: Assets/GraphicTests/Scenes/9x_Other/9800_Compositor.unity
    guid: 708bd21bc204d2342bc1702a5a6de1d3
  - enabled: 1
    path: Assets/GraphicTests/Scenes/9x_Other/9801_ShurikenLightModule.unity
    guid: d50ee167e49a2d74988347d7888c3613
  - enabled: 1
    path: Assets/GraphicTests/Scenes/9x_Other/9901_AOV_buffers.unity
    guid: 5b7d40e46ea038446bf4f714c9d89eaf
  - enabled: 1
    path: Assets/GraphicTests/Scenes/9x_Other/9902_AOV_buffers2.unity
    guid: f63ff73f5ad6e02479e7d9e556f572b6
  m_configObjects: {}
